<?xml version="1.0" encoding="UTF-8" standalone="no"?>
<svg width="39px" height="23px" viewBox="0 0 39 23" version="1.1" xmlns="http://www.w3.org/2000/svg" xmlns:xlink="http://www.w3.org/1999/xlink" xmlns:sketch="http://www.bohemiancoding.com/sketch/ns">
    <!-- Generator: Sketch 3.3 (11970) - http://www.bohemiancoding.com/sketch -->
    <title>Shape + Shape</title>
    <desc>Created with Sketch.</desc>
    <defs></defs>
    <g id="Page-1" stroke="none" stroke-width="1" fill="none" fill-rule="evenodd" sketch:type="MSPage">
        <g id="Artboard-监控" sketch:type="MSArtboardGroup" transform="translate(-536.000000, -1125.000000)" fill="#1BB3B3">
            <g id="Shape-+-Shape" sketch:type="MSLayerGroup" transform="translate(536.000000, 1125.857143)">
                <path d="M36.3602559,1.84894017 L28.9667293,6.24464603 L28.9667293,15.3007843 L36.3602559,19.7220285 L38.2114301,19.7220285 L38.2114301,1.84894017 L36.3602559,1.84894017 Z" id="Shape" sketch:type="MSShapeGroup"></path>
                <path d="M0,3.57461766 L0,17.9612211 C0,19.9402034 1.582396,21.540153 3.53478984,21.540153 L26.5014757,21.540153 L26.5014757,0 L3.53478984,0 C1.582396,0 0,1.59748431 0,3.57461766 L0,3.57461766 Z" id="Shape" sketch:type="MSShapeGroup"></path>
            </g>
        </g>
    </g>
</svg>