<?xml version="1.0" encoding="UTF-8" standalone="no"?>
<svg width="33px" height="30px" viewBox="0 0 33 30" version="1.1" xmlns="http://www.w3.org/2000/svg" xmlns:xlink="http://www.w3.org/1999/xlink" xmlns:sketch="http://www.bohemiancoding.com/sketch/ns">
    <!-- Generator: Sketch 3.3 (11970) - http://www.bohemiancoding.com/sketch -->
    <title>Storage</title>
    <desc>Created with Sketch.</desc>
    <defs></defs>
    <g id="Page-1" stroke="none" stroke-width="1" fill="none" fill-rule="evenodd" sketch:type="MSPage">
        <g id="Artboard-监控" sketch:type="MSArtboardGroup" transform="translate(-298.000000, -1121.000000)" fill="#9B9B9B">
            <path d="M300.258333,1146.13333 L306.754333,1146.13333 L306.754333,1148.26667 L300.258333,1148.26667 L300.258333,1146.13333 L300.258333,1146.13333 Z M298.125,1142.93333 L298.125,1150.4 L330.125,1150.4 L330.125,1142.93333 L298.125,1142.93333 L298.125,1142.93333 Z M300.258333,1135.46667 L306.754333,1135.46667 L306.738867,1137.6 L300.242867,1137.6 L300.258333,1135.46667 L300.258333,1135.46667 Z M298.125,1132.26667 L298.125,1139.73333 L330.125,1139.73333 L330.125,1132.26667 L298.125,1132.26667 L298.125,1132.26667 Z M300.258333,1124.8 L306.754333,1124.8 L306.754333,1126.9488 L300.258333,1126.9488 L300.258333,1124.8 L300.258333,1124.8 Z M298.125,1121.6 L298.125,1129.06667 L330.125,1129.06667 L330.125,1121.6 L298.125,1121.6 L298.125,1121.6 Z" id="Storage" sketch:type="MSShapeGroup"></path>
        </g>
    </g>
</svg>