<?xml version="1.0" encoding="UTF-8" standalone="no"?>
<svg width="27px" height="32px" viewBox="0 0 27 32" version="1.1" xmlns="http://www.w3.org/2000/svg" xmlns:xlink="http://www.w3.org/1999/xlink" xmlns:sketch="http://www.bohemiancoding.com/sketch/ns">
    <!-- Generator: Sketch 3.3 (11970) - http://www.bohemiancoding.com/sketch -->
    <title>Icon 3</title>
    <desc>Created with Sketch.</desc>
    <defs></defs>
    <g id="Page-1" stroke="none" stroke-width="1" fill="none" fill-rule="evenodd" sketch:type="MSPage">
        <g id="Artboard-任务" sketch:type="MSArtboardGroup" transform="translate(-30.000000, -183.000000)" fill="#000000">
            <path d="M38,212.333333 L38,191 L38,191 L54,191 L54,212.333333 L38,212.333333 L38,212.333333 Z M37.3333333,215 L35.3333333,215 L35.3333333,188.333333 L37.3333333,188.333333 L54.6666667,188.333333 L56.6666667,188.333333 L56.6666667,215 L54.6666667,215 L37.3333333,215 L37.3333333,215 Z M30,183 L30,209.666667 L32.6666667,209.666667 L32.6666667,183 L30,183 Z M32.6666667,183 L32.6666667,185.666667 L51.3333333,185.666667 L51.3333333,183 L32.6666667,183 Z M40.6666667,195 L40.6666667,196.333333 L47.3333333,196.333333 L47.3333333,195 L40.6666667,195 Z M40.6666667,207 L40.6666667,208.333333 L47.3333333,208.333333 L47.3333333,207 L40.6666667,207 Z M40.6666667,203 L40.6666667,204.333333 L48.6666667,204.333333 L48.6666667,203 L40.6666667,203 Z M40.6666667,199 L40.6666667,200.333333 L51.3333333,200.333333 L51.3333333,199 L40.6666667,199 Z M32.6666667,207 L32.6666667,209.666667 L34,209.666667 L34,207 L32.6666667,207 Z M48.6666667,185.666667 L48.6666667,187 L51.3333333,187 L51.3333333,185.666667 L48.6666667,185.666667 Z" id="Icon-3" sketch:type="MSShapeGroup"></path>
        </g>
    </g>
</svg>